﻿<?xml version="1.0" encoding="UTF-8"?>
<TestRun id="541f5144-bc16-4ee0-93fc-98d4931ee0c7" name="krzewinski@DAXHULK 2019-04-17 16:40:57" runUser="DAX\krzewinski" xmlns="http://microsoft.com/schemas/VisualStudio/TeamTest/2010">
  <TestSettings name="Local" id="a19c013d-bc05-44df-b33e-a84918f79825">
    <Description>These are default test settings for a local test run.</Description>
    <Deployment runDeploymentRoot="krzewinski_DAXHULK 2019-04-17 16_40_57">
      <DeploymentItem filename="DataWarehouseToNav\App.Config" />
      <DeploymentItem filename="C:\projekty\DaxDevTools\CLRNavDax\bin\Debug\CLRNavDax.dll" />
      <DeploymentItem filename="C:\projekty\DaxDevTools\SpedCustDaxLib\bin\Debug\SpedCustDaxLib.dll" />
    </Deployment>
    <Execution>
      <TestTypeSpecific>
        <UnitTestRunConfig testTypeId="13cdc9d9-ddb5-4fa4-a97d-d965ccfc6d4b">
          <AssemblyResolution>
            <TestDirectory useLoadContext="true" />
          </AssemblyResolution>
        </UnitTestRunConfig>
      </TestTypeSpecific>
      <AgentRule name="Execution Agents">
      </AgentRule>
    </Execution>
  </TestSettings>
  <Times creation="2019-04-17T16:40:57.0787351+02:00" queuing="2019-04-17T16:41:00.3904295+02:00" start="2019-04-17T16:41:00.7809595+02:00" finish="2019-04-17T16:41:12.5349360+02:00" />
  <ResultSummary outcome="Completed">
    <Counters total="1" executed="1" passed="1" error="0" failed="0" timeout="0" aborted="0" inconclusive="0" passedButRunAborted="0" notRunnable="0" notExecuted="0" disconnected="0" warning="0" completed="0" inProgress="0" pending="0" />
  </ResultSummary>
  <TestDefinitions>
    <UnitTest name="SpedCustExportTest" storage="c:\projekty\daxdevtools\testy\bin\debug\testy.dll" id="26f58771-ffb9-ef07-b8b5-3960ad25191d">
      <Execution id="79a6a81e-f33b-4c02-ae41-3f4458ca3e66" />
      <TestMethod codeBase="C:/projekty/DaxDevTools/Testy/bin/Debug/Testy.DLL" adapterTypeName="Microsoft.VisualStudio.TestTools.TestTypes.Unit.UnitTestAdapter, Microsoft.VisualStudio.QualityTools.Tips.UnitTest.Adapter, Version=10.0.0.0, Culture=neutral, PublicKeyToken=b03f5f7f11d50a3a" className="Testy.UnitTest1, Testy, Version=1.0.0.0, Culture=neutral, PublicKeyToken=null" name="SpedCustExportTest" />
    </UnitTest>
  </TestDefinitions>
  <TestLists>
    <TestList name="Results Not in a List" id="8c84fa94-04c1-424b-9868-57a2d4851a1d" />
    <TestList name="All Loaded Results" id="19431567-8539-422a-85d7-44ee4e166bda" />
  </TestLists>
  <TestEntries>
    <TestEntry testId="26f58771-ffb9-ef07-b8b5-3960ad25191d" executionId="79a6a81e-f33b-4c02-ae41-3f4458ca3e66" testListId="8c84fa94-04c1-424b-9868-57a2d4851a1d" />
  </TestEntries>
  <Results>
    <UnitTestResult executionId="79a6a81e-f33b-4c02-ae41-3f4458ca3e66" testId="26f58771-ffb9-ef07-b8b5-3960ad25191d" testName="SpedCustExportTest" computerName="DAXHULK" duration="00:00:07.2879683" startTime="2019-04-17T16:41:00.9527927+02:00" endTime="2019-04-17T16:41:10.7384980+02:00" testType="13cdc9d9-ddb5-4fa4-a97d-d965ccfc6d4b" outcome="Passed" testListId="8c84fa94-04c1-424b-9868-57a2d4851a1d" relativeResultsDirectory="79a6a81e-f33b-4c02-ae41-3f4458ca3e66">
    </UnitTestResult>
  </Results>
</TestRun>